{
    "camera": {
        "name": "main",
        "znear": 0.02,
        "zfar": 180,
        "aperture": 8,
        "shutterSpeed": 0.008,
        "ISO": 100,
        "expComp": 2,
        "position": [0, 0, 20],
        "perspectiveProjection": {
            "aspect": 1.2,
            "yfov": 0.698
        }
    },
    "lights": {
        "directional": {
            "name": "DirectionalLight",
            "temperature": 0,
            "illuminance": 0,
            "colorFilter": [125, 125, 125],
            "orientation": [0.011827163137787882, 0.8131551952909322, 0.581926753624095, 0.7999440453280166]
        },
        "ambient": {
            "name": "AmbientLight",
            "temperature": 5000,
            "illuminance": 10000,
            "colorFilter": [255, 255, 255]
        },
        "points": [
            {
                "name": "PointLight1",
                "temperature": 5000,
                "illuminance": 60000,
                "colorFilter": [254, 204, 163],
                "position": { "x": -2.462, "y": 0.854, "z": 0 }
            },
            {
                "name": "PointLight2",
                "temperature": 5000,
                "illuminance": 60000,
                "colorFilter": [85, 187, 215],
                "position": { "x": 1.663, "y": 1.241, "z": 0.204 }
            },
            {
                "name": "PointLight3",
                "temperature": 5000,
                "illuminance": 20000,
                "colorFilter": [255, 255, 255],
                "position": { "x": 0, "y": 0.95202, "z": -0.1294 }
            }
        ]
    }
}